name,time,age
B00013,2015-01-01 00:30:00,28
B00013,2015-01-01 01:22:00,30
B00013,2015-01-01 01:23:00,26
B00013,2015-01-01 01:44:00,25
B00013,2015-01-01 02:00:00,30
B00013,2015-01-01 02:00:00,21
B00013,2015-01-01 02:00:00,23
B00013,2015-01-01 02:50:00,22
B00013,2015-01-01 04:45:00,33
B00013,2015-01-01 06:30:00,34
B00013,2015-01-01 07:15:00,21
B00013,2015-01-01 07:54:00,33
B00013,2015-01-01 10:30:00,43
B00013,2015-01-01 11:00:00,21
B00013,2015-01-01 12:42:00,22
B00013,2015-01-01 12:58:00,24
B00013,2015-01-01 13:28:00,35